Daily Exercise 9/10
…
^ Not really, it could look clearer and be actually plotted on a graph.

Explain the R2 found in a sentence.

The R2 expression displays that the solar radiation points have a proportioned variance of 0.1213; meaning that the data plotted is not linear as it’s R2 value is closer to 0 than 1.

Use broom::augment to predict the Ozone of the cleaned data

library(broom)

predicted <- augment(model, data)
print(predicted)

# A tibble: 111 × 12
   Ozone Solar.R  Wind  Temp Month   Day .fitted .resid    .hat .sigma   .cooksd
   <int>   <int> <dbl> <int> <int> <int>   <dbl>  <dbl>   <dbl>  <dbl>     <dbl>
 1    41     190   7.4    67     5     1    42.8  -1.76 0.00904   31.5 0.0000145
 2    36     118   8      72     5     2    33.6   2.40 0.0139    31.5 0.0000418
 3    12     149  12.6    74     5     3    37.5 -25.5  0.0104    31.4 0.00353  
 4    18     313  11.5    62     5     4    58.4 -40.4  0.0270    31.2 0.0237   
 5    23     299   8.6    65     5     7    56.6 -33.6  0.0233    31.3 0.0140   
 6    19      99  13.8    59     5     8    31.2 -12.2  0.0171    31.5 0.00134  
 7     8      19  20.1    61     5     9    21.0 -13.0  0.0391    31.5 0.00365  
 8    16     256   9.7    69     5    12    51.2 -35.2  0.0146    31.3 0.00943  
 9    11     290   9.2    66     5    13    55.5 -44.5  0.0211    31.2 0.0222   
10    14     274  10.9    68     5    14    53.4 -39.4  0.0177    31.2 0.0145   
# ℹ 101 more rows
# ℹ 1 more variable: .std.resid <dbl>
…
